file;time elapsed;average speed;speedAfterEqu;outOfTargetNb;;
2021-10-21 112709.45;61,21341;424,43405;406,4428;0;0,0
2021-10-21 112713.389;61,200703;424,10114;406,51147;0;0,0
2021-10-21 175517.861;61,17263;424,89703;406,70618;0;0,0
