1: evt 1 e1:initial date 75.0 : realized date 75.0
1:75.0:t1
2: evt 11 e11:initial date 75.0 : realized date 75.0
2:75.0:t4
3: evt 2 e2:initial date 150.0 : realized date 150.0
3:150.0:t2
4: evt 12 e12:initial date 150.0 : realized date 150.0
4:150.0:t5
5: evt 3 e3:initial date 225.0 : realized date 225.0
5:225.0:t3
6: evt 13 e13:initial date 225.0 : realized date 225.0
6:225.0:t6
7: evt 14 e14:initial date 300.0 : realized date 300.0
7:300.0:t1
8: evt 4 e4:initial date 300.0 : realized date 300.0
8:300.0:t4
9: evt 15 e15:initial date 375.0 : realized date 375.0
9:375.0:t2
10: evt 5 e5:initial date 375.0 : realized date 375.0
10:375.0:t5
11: evt 16 e16:initial date 450.0 : realized date 450.0
11:450.0:t3
12: evt 6 e6:initial date 450.0 : realized date 450.0
12:450.0:t6
13: evt 7 e7:initial date 525.0 : realized date 525.0
13:525.0:t1
14: evt 17 e17:initial date 525.0 : realized date 525.0
14:525.0:t4
15: evt 8 e8:initial date 600.0 : realized date 600.0
15:600.0:t2
16: evt 18 e18:initial date 600.0 : realized date 600.0
16:600.0:t5
17: evt 9 e9:initial date 675.0 : realized date 675.0
17:675.0:t3
18: evt 19 e19:initial date 675.0 : realized date 675.0
18:675.0:t6
19: evt 20 e20:initial date 750.0 : realized date 750.0
19:750.0:t1
20: evt 10 e10:initial date 750.0 : realized date 750.0
20:750.0:t4
21:825.0:t2
22:825.0:t5
23:900.0:t3
24:900.0:t6
25:975.0:t1
26:975.0:t4
27:1050.0:t2
28:1050.0:t5
29:1125.0:t3
30:1125.0:t6
31:1200.0:t1
32:1200.0:t4
33:1275.0:t2
34:1275.0:t5
