0;2000.0;499.93546;1437.0588;458.88712;531.6278;
1;2000.0;499.93546;1437.0588;458.88712;531.6278;
2;2000.0;444.00635;1645.242;276.21896;531.6278;
3;2000.0;444.00635;1737.7946;276.21896;531.6278;
4;2000.0;414.79916;1302.9017;276.21896;509.29144;
5;2000.0;414.79916;1297.7145;276.21896;509.29144;
6;2000.0;367.55304;1297.7145;276.21896;458.88712;
7;2000.0;367.55304;1346.6619;276.21896;458.88712;
8;2000.0;276.21896;1346.6619;276.21896;276.21896;
9;2000.0;276.21896;1404.4282;276.21896;276.21896;
10;2000.0;438.1095;1404.4282;276.21896;600.0;
11;2000.0;438.1095;1382.6674;276.21896;600.0;
12;2000.0;492.073;1382.6674;276.21896;600.0;
13;2000.0;492.073;1323.4034;276.21896;600.0;
14;2000.0;438.1095;1323.4034;276.21896;600.0;
15;2000.0;438.1095;1094.1392;276.21896;600.0;
16;2000.0;492.073;1094.1392;276.21896;600.0;
17;2000.0;492.073;1034.6938;276.21896;600.0;
18;2000.0;438.1095;1034.6938;276.21896;600.0;
19;2000.0;438.1095;1039.1359;276.21896;600.0;
20;2000.0;276.21896;1039.1359;276.21896;276.21896;
21;2000.0;276.21896;1078.3013;276.21896;276.21896;
22;2000.0;406.21896;1078.3013;276.21896;276.21896;
23;2000.0;408.21896;1078.3013;276.21896;276.21896;
24;2000.0;409.21896;1078.3013;276.21896;276.21896;
25;2000.0;408.21896;1078.3013;276.21896;276.21896;
26;2000.0;409.21896;1078.3013;276.21896;276.21896;
26;2000.0;309.21896;1078.3013;276.21896;276.21896;