file;time elapsed;average speed;outOfTargetNb;realtime;opttime;optspeed
1;36,380886;547,3924;0;39;++;++
2;44,295193;531,3549;0;49;++;++
3;45,142586;532,0548;0;60;52;537
4;45,63754;436,409;0;41;++;++
5;48,5069;470,38153;0;50;++;++
6;48,80878;461,13397;0;67;49;511
