\relax 
\providecommand\hyper@newdestlabel[2]{}
\providecommand\babel@aux[2]{}
\@nameuse{bbl@beforestart}
\providecommand\HyperFirstAtBeginDocument{\AtBeginDocument}
\HyperFirstAtBeginDocument{\ifx\hyper@anchor\@undefined
\global\let\oldcontentsline\contentsline
\gdef\contentsline#1#2#3#4{\oldcontentsline{#1}{#2}{#3}}
\global\let\oldnewlabel\newlabel
\gdef\newlabel#1#2{\newlabelxx{#1}#2}
\gdef\newlabelxx#1#2#3#4#5#6{\oldnewlabel{#1}{{#2}{#3}}}
\AtEndDocument{\ifx\hyper@anchor\@undefined
\let\contentsline\oldcontentsline
\let\newlabel\oldnewlabel
\fi}
\fi}
\global\let\hyper@last\relax 
\gdef\HyperFirstAtBeginDocument#1{#1}
\providecommand\HyField@AuxAddToFields[1]{}
\providecommand\HyField@AuxAddToCoFields[2]{}
\babel@aux{USenglish}{}
\@writefile{toc}{\contentsline {section}{\numberline {1}Introduction}{2}{section.1}\protected@file@percent }
\@writefile{toc}{\contentsline {section}{\numberline {2}Transport networks and regulation}{2}{section.2}\protected@file@percent }
\@writefile{lof}{\contentsline {figure}{\numberline {1}{\ignorespaces Traffic management on circle network}}{3}{figure.1}\protected@file@percent }
\@writefile{toc}{\contentsline {section}{\numberline {3}Models : Petri-nets}{4}{section.3}\protected@file@percent }
\@writefile{toc}{\contentsline {subsection}{\numberline {3.1}Semantics of Transport Petri nets with regulation}{5}{subsection.3.1}\protected@file@percent }
\@writefile{lof}{\contentsline {figure}{\numberline {2}{\ignorespaces An example of a petri net with p1, p2, p3 as places, t1, t2, t3 as transitions}}{6}{figure.2}\protected@file@percent }
\@writefile{toc}{\contentsline {section}{\numberline {4}Traffic Management with a quadratic criterion}{7}{section.4}\protected@file@percent }
\@writefile{toc}{\contentsline {subsection}{\numberline {4.1}Moving blocks and equalization regulation}{7}{subsection.4.1}\protected@file@percent }
\@writefile{toc}{\contentsline {subsection}{\numberline {4.2}Headway Equalization}{7}{subsection.4.2}\protected@file@percent }
\@writefile{toc}{\contentsline {subsection}{\numberline {4.3}Headway optimization as a regulation rule}{8}{subsection.4.3}\protected@file@percent }
\@writefile{toc}{\contentsline {section}{\numberline {5}Traffic management with Neural networks}{8}{section.5}\protected@file@percent }
\@writefile{toc}{\contentsline {subsection}{\numberline {5.1}Neural Networks}{8}{subsection.5.1}\protected@file@percent }
\@writefile{lof}{\contentsline {figure}{\numberline {3}{\ignorespaces A neuron}}{9}{figure.3}\protected@file@percent }
\@writefile{lof}{\contentsline {figure}{\numberline {4}{\ignorespaces Neural network}}{10}{figure.4}\protected@file@percent }
\@writefile{lof}{\contentsline {figure}{\numberline {5}{\ignorespaces Convergence time for different neural networks}}{11}{figure.5}\protected@file@percent }
\@writefile{lof}{\contentsline {figure}{\numberline {6}{\ignorespaces Convergence time for different neural networks filtered (without 25, 30 and 45 tokens number}}{11}{figure.6}\protected@file@percent }
\@writefile{lof}{\contentsline {figure}{\numberline {7}{\ignorespaces Convergence time for different inputs of neural network}}{12}{figure.7}\protected@file@percent }
\@writefile{toc}{\contentsline {section}{\numberline {6}Experimentation}{12}{section.6}\protected@file@percent }
\@writefile{toc}{\contentsline {subsection}{\numberline {6.1}Convergence time}{12}{subsection.6.1}\protected@file@percent }
\citation{*}
\bibstyle{plain}
\bibdata{literature}
\bibcite{PetriNets}{1}
\@writefile{lof}{\contentsline {figure}{\numberline {8}{\ignorespaces Comparison neural network and quadratic rule model}}{13}{figure.8}\protected@file@percent }
\@writefile{toc}{\contentsline {subsection}{\numberline {6.2}Speed}{13}{subsection.6.2}\protected@file@percent }
\@writefile{toc}{\contentsline {subsubsection}{\numberline {6.2.1}Speed and alpha = 1}{13}{subsubsection.6.2.1}\protected@file@percent }
\@writefile{toc}{\contentsline {subsubsection}{\numberline {6.2.2}Speed and alpha = 10}{13}{subsubsection.6.2.2}\protected@file@percent }
\@writefile{toc}{\contentsline {subsubsection}{\numberline {6.2.3}Speed with a min of 260}{13}{subsubsection.6.2.3}\protected@file@percent }
\@writefile{toc}{\vspace *{\baselineskip }}
\bibcite{L3}{2}
\@writefile{lof}{\contentsline {figure}{\numberline {9}{\ignorespaces Comparison neural network and quadratic rule model with a minimum speed}}{14}{figure.9}\protected@file@percent }
\@writefile{toc}{\contentsline {section}{\numberline {7}References}{14}{section.7}\protected@file@percent }
\gdef \@abspage@last{14}
