file;time elapsed;average speed;outOfTargetNb;opt time;opt speed
1;138,33238;418,1811;0;126;
2;153,83174;512,89343;0;140;
3;155,95631;469,43317;0;99;
4;159,36694;554,97675;0;111;
5;166,70639;557,05664;0;96;
